-1.72352358428618
-1.07854659594604
0.483699686294312
0.645176882422886
-1.25103656088774
0.0945918484404092
1.40461058349392
0.215914407937888
-0.890963560937166
0.409461633029029
0.106742457802824
-0.723049438396789
-0.481579084575517
-0.00310503282888349
0.218940785974476
0.269002245423755
-0.725915416673067
-0.750754131071028
-0.18522780056321
-0.430005644416078
-0.0451100485849044
0.983421906376255
0.0787897655327872
0.0244082683163841
1.04651685007421
-1.36381313833505
-0.4653599624604
-0.106872108017375
-0.728831174380139
-1.14093631299617
-0.236074801706576
-0.199431286735386
-0.748283805424569
-0.0876011826031532
-0.160831768492323
-0.178054699736915
-0.0398483201778409
0.690336126660198
1.10916182603898
-0.798293080938844
0.364389708310099
-0.132206924005526
-0.0530304962031087
0.0720703368941437
0.541318160318737
-0.0193586106169121
0.182646898462884
0.255566934871892
-0.449181723785045
-0.431214930117655
1.36119608020493
0.240018945284592
-0.503880215601231
-0.445159574512928
2.26549338689239
-0.305919235447582
-0.387795024592642
0.518734245308876
-0.377443142652806
-0.540176117985115
0.889778751124305
0.551719311607143
0.494290337003645
0.174996642512168
-0.288486828707987
-0.343787752805602
0.159861896099028
-0.00814045378442355
-0.0818035699266313
0.0279425500040776
-0.416446773426132
-0.0370743711022833
-0.147139468791767
0.910901723173136
0.680247703915333
-0.328655202708369
-0.600514336188633
0.238474720531901
-1.03817064694841
0.0395770830804621
0.322244755000401
-1.79773019510227
-0.670763803526146
-0.734535788945024
0.633664630796589
-0.204061932229041
-0.0239475318757112
-1.42065936693527
-2.38539271686232
0.797708099036767
-0.270119986840933
0.011799559072107
-0.74092624972423
-0.828103009980488
1.24439613232051
-0.888174764882891
0.904573399376305
1.27106335778575
0.382723581347789
